Data_analysis
…
            IQR = IQR(total_amount_of_payment_usdollars),
            median = median(total_amount_of_payment_usdollars),
            max = max(total_amount_of_payment_usdollars),
            n = n())|>
  arrange(desc(sum))|>
  rename("Submitting Manufacturer Or GPO's Name"=submitting_applicable_manufacturer_or_applicable_gpo_name, 
         "Sum, $"=sum,
         "Min, $"=min,
         "IQR, $"=IQR,
         "Median, $"=median,
         "Max, $"=max,
         "Times Of Payment"=n)
company

# A tibble: 99 × 7
   Submitting Manufacturer Or …¹ Sum, …² Min, …³ IQR, …⁴ Media…⁵ Max, …⁶ Times…⁷
   <chr>                           <dbl>   <dbl>   <dbl>   <dbl>   <dbl>   <int>
 1 Peter Brasseler Holdings, LLC  1.20e6   16.7  50427.  35421.  109432.      27
 2 Straumann USA LLC              9.91e4    2.13    25      25    20000      983
 3 Align Technology, Inc.         7.48e4    1.79    73.2    73.3   3604      833
 4 Zimmer Biomet Holdings, Inc.   7.36e4    3       25      75      505.     952
 5 Strategic Dentistry LLC        6.32e4  244.   11320.   1250    36000        7
 6 PATTERSON COMPANIES, INC.      5.75e4    4.7   1133.    150.    5500       81
 7 Ivoclar Vivadent, Inc.         4.51e4   13.3     85.0    99.4  11329       43
 8 A-dec, Inc.                    4.41e4    0.45   181.     66.5   2565      258
 9 Dentium Co., Ltd               3.20e4 2667.       0    2667.    2667.      12
10 KLS-Martin L.P.                2.26e4  133.    1842.   7500     7500        4
# … with 89 more rows, and abbreviated variable names
#   ¹​`Submitting Manufacturer Or GPO's Name`, ²​`Sum, $`, ³​`Min, $`, ⁴​`IQR, $`,
#   ⁵​`Median, $`, ⁶​`Max, $`, ⁷​`Times Of Payment`
…
